{
	"info": {
		"_postman_id": "2e0eaccb-5ca8-495d-a681-432ef65cdce5",
		"name": "Capstone 2",
		"schema": "https://schema.getpostman.com/json/collection/v2.1.0/collection.json",
		"_exporter_id": "24664418"
	},
	"item": [
		{
			"name": "User Request",
			"item": [
				{
					"name": "Register User",
					"request": {
						"method": "POST",
						"header": [],
						"body": {
							"mode": "raw",
							"raw": "{\r\n    \"email\": \"rudeusGreyrat@gmail.com\",\r\n    \"password\": \"1234567\"\r\n}",
							"options": {
								"raw": {
									"language": "json"
								}
							}
						},
						"url": {
							"raw": "http://localhost:4000/users/register",
							"protocol": "http",
							"host": [
								"localhost"
							],
							"port": "4000",
							"path": [
								"users",
								"register"
							]
						}
					},
					"response": []
				},
				{
					"name": "Log-in User",
					"request": {
						"method": "POST",
						"header": [],
						"body": {
							"mode": "raw",
							"raw": "{\r\n    \"email\": \"rael@gmail.com\",\r\n    \"password\": \"1234567\"\r\n}",
							"options": {
								"raw": {
									"language": "json"
								}
							}
						},
						"url": {
							"raw": "http://localhost:4000/users/login",
							"protocol": "http",
							"host": [
								"localhost"
							],
							"port": "4000",
							"path": [
								"users",
								"login"
							]
						}
					},
					"response": []
				},
				{
					"name": "Update User Role",
					"request": {
						"auth": {
							"type": "bearer",
							"bearer": [
								{
									"key": "token",
									"value": "eyJhbGciOiJIUzI1NiIsInR5cCI6IkpXVCJ9.eyJpZCI6IjYzOTAzZDlmYmZiY2IwODEyNWQ1NTg2NSIsImVtYWlsIjoiQWRtaW4iLCJpc0FkbWluIjp0cnVlLCJpYXQiOjE2NzA0MDAzMjN9.fNuhsMQCtZhuy4yechIudK7sRlT-Ujh5tA1eG5FfL-I",
									"type": "string"
								}
							]
						},
						"method": "PATCH",
						"header": [],
						"url": {
							"raw": "http://localhost:4000/users/updateRole/63903cf75f4b9022e096d356",
							"protocol": "http",
							"host": [
								"localhost"
							],
							"port": "4000",
							"path": [
								"users",
								"updateRole",
								"63903cf75f4b9022e096d356"
							]
						}
					},
					"response": []
				},
				{
					"name": "Create Token",
					"request": {
						"method": "POST",
						"header": [],
						"body": {
							"mode": "raw",
							"raw": "{\r\n    \"email\": \"Admin\"\r\n}",
							"options": {
								"raw": {
									"language": "json"
								}
							}
						},
						"url": {
							"raw": "http://localhost:4000/users/createToken",
							"protocol": "http",
							"host": [
								"localhost"
							],
							"port": "4000",
							"path": [
								"users",
								"createToken"
							]
						}
					},
					"response": []
				}
			]
		},
		{
			"name": "Product Request",
			"item": [
				{
					"name": "Create Product",
					"request": {
						"auth": {
							"type": "bearer",
							"bearer": [
								{
									"key": "token",
									"value": "eyJhbGciOiJIUzI1NiIsInR5cCI6IkpXVCJ9.eyJpZCI6IjYzOTAzZDlmYmZiY2IwODEyNWQ1NTg2NSIsImVtYWlsIjoiQWRtaW4iLCJpc0FkbWluIjp0cnVlLCJpYXQiOjE2NzA1MTgxOTV9.53d1LjE7V5355ankX2PehEijiK6Hz_hMUVPMldHQmsA",
									"type": "string"
								}
							]
						},
						"method": "POST",
						"header": [],
						"body": {
							"mode": "raw",
							"raw": "{\r\n    \"name\": \"Cappuccino\",\r\n    \"description\": \"Cappuccino is a latte made with more foam than steamed milk, often with a sprinkle of cocoa powder or cinnamon on top.\",\r\n    \"price\": 240 \r\n}",
							"options": {
								"raw": {
									"language": "json"
								}
							}
						},
						"url": {
							"raw": "http://localhost:4000/products/createProduct",
							"protocol": "http",
							"host": [
								"localhost"
							],
							"port": "4000",
							"path": [
								"products",
								"createProduct"
							]
						}
					},
					"response": []
				},
				{
					"name": "Get All Active Product",
					"request": {
						"method": "GET",
						"header": [],
						"url": {
							"raw": "http://localhost:4000/products/activeProducts",
							"protocol": "http",
							"host": [
								"localhost"
							],
							"port": "4000",
							"path": [
								"products",
								"activeProducts"
							]
						}
					},
					"response": []
				},
				{
					"name": "Get All Products",
					"request": {
						"method": "GET",
						"header": [],
						"url": {
							"raw": "http://localhost:4000/products/allProducts",
							"protocol": "http",
							"host": [
								"localhost"
							],
							"port": "4000",
							"path": [
								"products",
								"allProducts"
							]
						}
					},
					"response": []
				},
				{
					"name": "Update A Product",
					"request": {
						"auth": {
							"type": "bearer",
							"bearer": [
								{
									"key": "token",
									"value": "eyJhbGciOiJIUzI1NiIsInR5cCI6IkpXVCJ9.eyJpZCI6IjYzOTAzY2Y3NWY0YjkwMjJlMDk2ZDM1NiIsImVtYWlsIjoicmFmYWVsQGdtYWlsLmNvbSIsImlzQWRtaW4iOmZhbHNlLCJpYXQiOjE2NzA1MjQyMDh9.PR4VP5HEU_BLltV4lnmdgJorEVs8smjhWo0TBy5JCYs",
									"type": "string"
								}
							]
						},
						"method": "PUT",
						"header": [],
						"body": {
							"mode": "raw",
							"raw": "{\r\n    \"name\": \"Caffè Latte 1.0\",\r\n    \"description\": \"A milk coffee that is a made up of one or two shots of espresso, steamed milk and a final, thin layers of frothed milk on top.\",\r\n    \"price\": 270\r\n}",
							"options": {
								"raw": {
									"language": "json"
								}
							}
						},
						"url": {
							"raw": "http://localhost:4000/products/update/63920fbc3a9fdc4d6fd625ae",
							"protocol": "http",
							"host": [
								"localhost"
							],
							"port": "4000",
							"path": [
								"products",
								"update",
								"63920fbc3a9fdc4d6fd625ae"
							]
						}
					},
					"response": []
				},
				{
					"name": "Archive or un-Archive A Product",
					"request": {
						"auth": {
							"type": "bearer",
							"bearer": [
								{
									"key": "token",
									"value": "eyJhbGciOiJIUzI1NiIsInR5cCI6IkpXVCJ9.eyJpZCI6IjYzOTAzZDlmYmZiY2IwODEyNWQ1NTg2NSIsImVtYWlsIjoiQWRtaW4iLCJpc0FkbWluIjp0cnVlLCJpYXQiOjE2NzA1MjU4ODd9.XU-nAv2SSyTjg8MPI7FSOicbpfL7RREF3ZgN13oCXrU",
									"type": "string"
								}
							]
						},
						"method": "PATCH",
						"header": [],
						"url": {
							"raw": "http://localhost:4000/products/archive/63920fbc3a9fdc4d6fd625ae",
							"protocol": "http",
							"host": [
								"localhost"
							],
							"port": "4000",
							"path": [
								"products",
								"archive",
								"63920fbc3a9fdc4d6fd625ae"
							]
						}
					},
					"response": []
				}
			]
		},
		{
			"name": "Password",
			"request": {
				"method": "GET",
				"header": [],
				"url": {
					"raw": "userPassword = 1234567 , adminPassword = admin-1234",
					"host": [
						"userPassword = 1234567 , adminPassword = admin-1234"
					]
				}
			},
			"response": []
		}
	]
}